{
  "book": [
    {
      "id": 1,
      "name": "流浪者之歌",
      "ibsn": 9781548460075,
      "photo" : "http://pic.eslite.com/Upload/Product/201906/m/636949748055067500.jpg"
    },
    {
      "id": 2,
      "name": "徬徨少年時",
      "ibsn": 9789865671631,
      "photo": "https://im1.book.com.tw/image/getImage?i=https://www.books.com.tw/img/001/068/75/0010687592.jpg&v=55d6fe13&w=348&h=348"
    },
    {
      "id": 3,
      "name": "異鄉人",
      "ibsn": 9788683489343,
      "photo": "http://pic.eslite.com/Upload/Product/201906/m/636960359476298750.jpg"
    },
    {
      "id": 4,
      "name": "我想吃掉你的胰臟",
      "ibsn": 9789869509466,
      "photo": "https://im1.book.com.tw/image/getImage?i=https://www.books.com.tw/img/001/083/29/0010832996.jpg&w=200"
    },
    {
      "id": 5,
      "name": "長日將盡",
      "ibsn": 9788554514860,
      "photo": "http://a.ecimg.tw/items/DJAM07A90066D33/000001_1521773478.jpg"
    },
    {
      "id": 6,
      "name": "小鬱亂入，抱緊處理",
      "ibsn": 9789861336121,
      "photo": "https://im1.book.com.tw/image/getImage?i=https://www.books.com.tw/img/001/074/72/0010747228.jpg&w=200"
    }
  ]
}
